^C:\Users\diyer\Desktop\Term2\SensorFusion\EKF\EKF_project\CarND-Extended-Kalman-Filter-Project\ekf.vcxproj
C:\Users\diyer\Desktop\Term2\SensorFusion\EKF\EKF_project\CarND-Extended-Kalman-Filter-Project\x64\Debug\ekf.lib
C:\Users\diyer\Desktop\Term2\SensorFusion\EKF\EKF_project\CarND-Extended-Kalman-Filter-Project\x64\Debug\ekf.exp
^C:\Users\diyer\Desktop\Term2\SensorFusion\EKF\EKF_project\CarND-Extended-Kalman-Filter-Project\x64\Debug\ekf.exe
C:\Users\diyer\Desktop\Term2\SensorFusion\EKF\EKF_project\CarND-Extended-Kalman-Filter-Project\x64\Debug\vcpkg.applocal.log
C:\Users\diyer\Desktop\Term2\SensorFusion\EKF\EKF_project\CarND-Extended-Kalman-Filter-Project\x64\Debug\libuv.dll
C:\Users\diyer\Desktop\Term2\SensorFusion\EKF\EKF_project\CarND-Extended-Kalman-Filter-Project\x64\Debug\SSLEAY32.dll
C:\Users\diyer\Desktop\Term2\SensorFusion\EKF\EKF_project\CarND-Extended-Kalman-Filter-Project\x64\Debug\LIBEAY32.dll
C:\Users\diyer\Desktop\Term2\SensorFusion\EKF\EKF_project\CarND-Extended-Kalman-Filter-Project\x64\Debug\uWS.dll
C:\Users\diyer\Desktop\Term2\SensorFusion\EKF\EKF_project\CarND-Extended-Kalman-Filter-Project\x64\Debug\zlibd1.dll
