^C:\USERS\DIYER\DESKTOP\TERM2\SENSORFUSION\EKF\EKF_PROJECT\CARND-EXTENDED-KALMAN-FILTER-PROJECT\X64\DEBUG\FUSIONEKF.OBJ|C:\USERS\DIYER\DESKTOP\TERM2\SENSORFUSION\EKF\EKF_PROJECT\CARND-EXTENDED-KALMAN-FILTER-PROJECT\X64\DEBUG\KALMAN_FILTER.OBJ|C:\USERS\DIYER\DESKTOP\TERM2\SENSORFUSION\EKF\EKF_PROJECT\CARND-EXTENDED-KALMAN-FILTER-PROJECT\X64\DEBUG\MAIN.OBJ|C:\USERS\DIYER\DESKTOP\TERM2\SENSORFUSION\EKF\EKF_PROJECT\CARND-EXTENDED-KALMAN-FILTER-PROJECT\X64\DEBUG\TOOLS.OBJ
C:\WINDOWS\GLOBALIZATION\SORTING\SORTDEFAULT.NLS
C:\PROGRAM FILES (X86)\WINDOWS KITS\10\LIB\10.0.16299.0\UM\X64\KERNEL32.LIB
C:\PROGRAM FILES (X86)\WINDOWS KITS\10\LIB\10.0.16299.0\UM\X64\USER32.LIB
C:\PROGRAM FILES (X86)\WINDOWS KITS\10\LIB\10.0.16299.0\UM\X64\GDI32.LIB
C:\PROGRAM FILES (X86)\WINDOWS KITS\10\LIB\10.0.16299.0\UM\X64\WINSPOOL.LIB
C:\PROGRAM FILES (X86)\WINDOWS KITS\10\LIB\10.0.16299.0\UM\X64\COMDLG32.LIB
C:\PROGRAM FILES (X86)\WINDOWS KITS\10\LIB\10.0.16299.0\UM\X64\ADVAPI32.LIB
C:\PROGRAM FILES (X86)\WINDOWS KITS\10\LIB\10.0.16299.0\UM\X64\SHELL32.LIB
C:\PROGRAM FILES (X86)\WINDOWS KITS\10\LIB\10.0.16299.0\UM\X64\OLE32.LIB
C:\PROGRAM FILES (X86)\WINDOWS KITS\10\LIB\10.0.16299.0\UM\X64\OLEAUT32.LIB
C:\PROGRAM FILES (X86)\WINDOWS KITS\10\LIB\10.0.16299.0\UM\X64\UUID.LIB
C:\PROGRAM FILES (X86)\WINDOWS KITS\10\LIB\10.0.16299.0\UM\X64\ODBC32.LIB
C:\PROGRAM FILES (X86)\WINDOWS KITS\10\LIB\10.0.16299.0\UM\X64\ODBCCP32.LIB
C:\VCPKG\INSTALLED\X64-WINDOWS\DEBUG\LIB\LIBEAY32.LIB
C:\VCPKG\INSTALLED\X64-WINDOWS\DEBUG\LIB\LIBUV.LIB
C:\VCPKG\INSTALLED\X64-WINDOWS\DEBUG\LIB\SSLEAY32.LIB
C:\VCPKG\INSTALLED\X64-WINDOWS\DEBUG\LIB\UWS.LIB
C:\VCPKG\INSTALLED\X64-WINDOWS\DEBUG\LIB\ZLIBD.LIB
C:\USERS\DIYER\DESKTOP\TERM2\SENSORFUSION\EKF\EKF_PROJECT\CARND-EXTENDED-KALMAN-FILTER-PROJECT\X64\DEBUG\FUSIONEKF.OBJ
C:\USERS\DIYER\DESKTOP\TERM2\SENSORFUSION\EKF\EKF_PROJECT\CARND-EXTENDED-KALMAN-FILTER-PROJECT\X64\DEBUG\KALMAN_FILTER.OBJ
C:\USERS\DIYER\DESKTOP\TERM2\SENSORFUSION\EKF\EKF_PROJECT\CARND-EXTENDED-KALMAN-FILTER-PROJECT\X64\DEBUG\MAIN.OBJ
C:\USERS\DIYER\DESKTOP\TERM2\SENSORFUSION\EKF\EKF_PROJECT\CARND-EXTENDED-KALMAN-FILTER-PROJECT\X64\DEBUG\TOOLS.OBJ
C:\USERS\DIYER\DESKTOP\TERM2\SENSORFUSION\EKF\EKF_PROJECT\CARND-EXTENDED-KALMAN-FILTER-PROJECT\SRC\EIGEN.NATVIS
C:\PROGRAM FILES (X86)\MICROSOFT VISUAL STUDIO\2017\PROFESSIONAL\VC\TOOLS\MSVC\14.12.25827\LIB\X64\MSVCPRTD.LIB
C:\PROGRAM FILES (X86)\MICROSOFT VISUAL STUDIO\2017\PROFESSIONAL\VC\TOOLS\MSVC\14.12.25827\LIB\X64\MSVCRTD.LIB
C:\PROGRAM FILES (X86)\MICROSOFT VISUAL STUDIO\2017\PROFESSIONAL\VC\TOOLS\MSVC\14.12.25827\LIB\X64\OLDNAMES.LIB
C:\PROGRAM FILES (X86)\WINDOWS KITS\10\LIB\10.0.16299.0\UM\X64\WS2_32.LIB
C:\PROGRAM FILES (X86)\MICROSOFT VISUAL STUDIO\2017\PROFESSIONAL\VC\TOOLS\MSVC\14.12.25827\LIB\X64\VCRUNTIMED.LIB
C:\PROGRAM FILES (X86)\WINDOWS KITS\10\LIB\10.0.16299.0\UCRT\X64\UCRTD.LIB
C:\WINDOWS\SYSTEM32\TZRES.DLL
C:\PROGRAM FILES (X86)\MICROSOFT VISUAL STUDIO\2017\PROFESSIONAL\VC\TOOLS\MSVC\14.12.25827\BIN\HOSTX86\X64\1033\LINKUI.DLL
C:\PROGRAM FILES (X86)\WINDOWS KITS\10\BIN\10.0.16299.0\X86\RC.EXE
C:\PROGRAM FILES (X86)\MICROSOFT VISUAL STUDIO\2017\PROFESSIONAL\VC\TOOLS\MSVC\14.12.25827\BIN\HOSTX86\X86\CVTRES.EXE
